{
  "info": {
    "count": 51,
    "pages": 3,
    "next": "https://rickandmortyapi.com/api/episode?page=2",
    "prev": null
  },
  "results": [
    {
      "id": 1,
      "name": "Pilot",
      "air_date": "December 2, 2013",
      "episode": "S01E01",
      "characters": [
        "https://rickandmortyapi.com/api/character/1",
        "https://rickandmortyapi.com/api/character/2"
      ],
      "url": "https://rickandmortyapi.com/api/episode/1",
      "created": "2017-11-10T12:56:33.798Z"
    },
    {
      "id": 2,
      "name": "Lawnmower Dog",
      "air_date": "December 9, 2013",
      "episode": "S01E02",
      "characters": [
        "https://rickandmortyapi.com/api/character/1",
        "https://rickandmortyapi.com/api/character/2",
        "https://rickandmortyapi.com/api/character/38"
      ],
      "url": "https://rickandmortyapi.com/api/episode/2",
      "created": "2017-11-10T12:56:33.916Z"
    },
    {
      "id": 3,
      "name": "Anatomy Park",
      "air_date": "December 16, 2013",
      "episode": "S01E03",
      "characters": [
        "https://rickandmortyapi.com/api/character/1",
        "https://rickandmortyapi.com/api/character/2",
        "https://rickandmortyapi.com/api/character/12"
      ],
      "url": "https://rickandmortyapi.com/api/episode/3",
      "created": "2017-11-10T12:56:34.022Z"
    },
    {
      "id": 4,
      "name": "M. Night Shaym-Aliens!",
      "air_date": "January 13, 2014",
      "episode": "S01E04",
      "characters": [
        "https://rickandmortyapi.com/api/character/1",
        "https://rickandmortyapi.com/api/character/2"
      ],
      "url": "https://rickandmortyapi.com/api/episode/4",
      "created": "2017-11-10T12:56:34.129Z"
    },
    {
      "id": 5,
      "name": "Meeseeks and Destroy",
      "air_date": "January 20, 2014",
      "episode": "S01E05",
      "characters": [
        "https://rickandmortyapi.com/api/character/1",
        "https://rickandmortyapi.com/api/character/2",
        "https://rickandmortyapi.com/api/character/38"
      ],
      "url": "https://rickandmortyapi.com/api/episode/5",
      "created": "2017-11-10T12:56:34.236Z"
    }
  ]
}
